{
	"pattrstorage" : 	{
		"name" : "presets",
		"slots" : 		{
			"1" : 			{
				"id" : 1,
				"data" : 				{
					"metro" : [ 0 ],
					"bpm" : [ 60 ],
					"effect" : [ 14 ],
					"smooth" : [ 0.1 ],
					"scale" : [ 0 ],
					"jab-w" : [ 5 ],
					"jab-t" : [ 10 ],
					"input" : [ 0 ],
					"rev-x" : [ 0 ],
					"rev-y" : [ 0 ],
					"rev-z" : [ 0 ],
					"axes" : [ 0, 0, 1, 1, 1, 1, 2, 2, 1 ],
					"viz" : [ 1 ],
					"scalingSmoothing::range" : [ -180.0, 180.0, -180.0, 180.0, -180.0, 180.0 ]
				}

			}
,
			"2" : 			{
				"id" : 2,
				"data" : 				{
					"metro" : [ 0 ],
					"bpm" : [ 60 ],
					"effect" : [ 14 ],
					"smooth" : [ 0.249606 ],
					"scale" : [ 0 ],
					"jab-w" : [ 5 ],
					"jab-t" : [ 10 ],
					"input" : [ 0 ],
					"rev-x" : [ 0 ],
					"rev-y" : [ 0 ],
					"rev-z" : [ 1 ],
					"axes" : [ 0, 0, 1, 1, 2, 1, 2, 1, 1 ],
					"viz" : [ 1 ],
					"scalingSmoothing::range" : [ 4.812191, 6.244378, 42.681515, 44.546455, -0.568051, 1.290935 ]
				}

			}

		}

	}

}
